\relax 
\citation{Hong10}
\@writefile{toc}{\contentsline {chapter}{\numberline {2}Literature Review}{8}}
\@writefile{lof}{\addvspace {10\p@ }}
\@writefile{lot}{\addvspace {10\p@ }}
\newlabel{chap:Literature Review}{{2}{8}}
\@writefile{toc}{\contentsline {section}{\numberline {2.1}Introduction}{8}}
\newlabel{sec:Chap2_Introduction}{{2.1}{8}}
\@writefile{toc}{\contentsline {section}{\numberline {2.2}Broadcast operation in Duty-Cycled Wireless Sensor Networks}{8}}
\citation{Duan2011}
\citation{Hong08}
\citation{Ye02anenergy-efficient}
\citation{Feng09}
\citation{DBLP:journals/corr/abs-1010-2818}
\@writefile{toc}{\contentsline {section}{\numberline {2.3}Summary}{11}}
\@setckpt{chap2}{
\setcounter{page}{12}
\setcounter{equation}{0}
\setcounter{enumi}{0}
\setcounter{enumii}{0}
\setcounter{enumiii}{0}
\setcounter{enumiv}{0}
\setcounter{footnote}{0}
\setcounter{mpfootnote}{0}
\setcounter{part}{0}
\setcounter{chapter}{2}
\setcounter{section}{3}
\setcounter{subsection}{0}
\setcounter{subsubsection}{0}
\setcounter{paragraph}{0}
\setcounter{subparagraph}{0}
\setcounter{figure}{0}
\setcounter{table}{0}
\setcounter{subfigure}{0}
\setcounter{lofdepth}{1}
\setcounter{subtable}{0}
\setcounter{lotdepth}{1}
\setcounter{float@type}{8}
\setcounter{algorithm}{0}
\setcounter{ALG@line}{0}
\setcounter{ALG@rem}{0}
\setcounter{ALG@nested}{0}
\setcounter{ALG@Lnr}{2}
\setcounter{ALG@blocknr}{10}
\setcounter{ALG@storecount}{0}
\setcounter{ALG@tmpcounter}{0}
\setcounter{LT@tables}{0}
\setcounter{parentequation}{0}
}
