\relax 
\citation{Hong10}
\citation{Hong10}
\@writefile{toc}{\contentsline {chapter}{\numberline {4}Experimental Results}{32}}
\@writefile{lof}{\addvspace {10\p@ }}
\@writefile{lot}{\addvspace {10\p@ }}
\newlabel{chap:Experimental Results}{{4}{32}}
\@writefile{toc}{\contentsline {section}{\numberline {4.1}Introduction}{32}}
\newlabel{sec:Chap4_Introduction}{{4.1}{32}}
\@writefile{toc}{\contentsline {section}{\numberline {4.2}Performance Comparison}{32}}
\@writefile{toc}{\contentsline {subsection}{\numberline {4.2.1}Total Number of Data Transmissions}{33}}
\@writefile{lot}{\contentsline {table}{\numberline {4.1}{\ignorespaces Total Number of Transmissions Required for Networks with $N$=$50$ to $N$=$400$}}{33}}
\newlabel{t41}{{4.1}{33}}
\@writefile{lof}{\contentsline {figure}{\numberline {4.1}{\ignorespaces Total Number of Data Transmissions for CSCA and CSCA\_MT}}{34}}
\newlabel{Fig:Chap4_Figure1}{{4.1}{34}}
\@writefile{toc}{\contentsline {subsection}{\numberline {4.2.2}Average Height of Broadcast Tree }{34}}
\@writefile{lot}{\contentsline {table}{\numberline {4.2}{\ignorespaces Average Height of the Broadcast Tree for Networks with $N=50$ to $N=400$}}{35}}
\newlabel{t42}{{4.2}{35}}
\@writefile{lof}{\contentsline {figure}{\numberline {4.2}{\ignorespaces Average Height of Broadcast Tree Generated by CSCA and CSCA\_MT}}{35}}
\newlabel{Fig:Chap4_Figure2}{{4.2}{35}}
\@writefile{toc}{\contentsline {subsection}{\numberline {4.2.3}Average Delay}{36}}
\@writefile{lot}{\contentsline {table}{\numberline {4.3}{\ignorespaces Average delay of the Networks with $N$=50 to $N$=400}}{36}}
\newlabel{t33}{{4.3}{36}}
\@writefile{lof}{\contentsline {figure}{\numberline {4.3}{\ignorespaces Average Delay Generated by CSCA and CSCA\_MT}}{37}}
\newlabel{Fig:Chap4_Figure3}{{4.3}{37}}
\@writefile{toc}{\contentsline {section}{\numberline {4.3}Result Analysis}{37}}
\@setckpt{chap4}{
\setcounter{page}{38}
\setcounter{equation}{0}
\setcounter{enumi}{4}
\setcounter{enumii}{0}
\setcounter{enumiii}{0}
\setcounter{enumiv}{0}
\setcounter{footnote}{0}
\setcounter{mpfootnote}{0}
\setcounter{part}{0}
\setcounter{chapter}{4}
\setcounter{section}{3}
\setcounter{subsection}{0}
\setcounter{subsubsection}{0}
\setcounter{paragraph}{0}
\setcounter{subparagraph}{0}
\setcounter{figure}{3}
\setcounter{table}{3}
\setcounter{subfigure}{0}
\setcounter{lofdepth}{1}
\setcounter{subtable}{0}
\setcounter{lotdepth}{1}
\setcounter{float@type}{8}
\setcounter{algorithm}{3}
\setcounter{ALG@line}{45}
\setcounter{ALG@rem}{45}
\setcounter{ALG@nested}{0}
\setcounter{ALG@Lnr}{2}
\setcounter{ALG@blocknr}{10}
\setcounter{ALG@storecount}{0}
\setcounter{ALG@tmpcounter}{0}
\setcounter{LT@tables}{0}
\setcounter{parentequation}{0}
}
