\relax 
\citation{Akyildiz2002}
\citation{Akyildiz2002}
\@writefile{toc}{\contentsline {chapter}{\numberline {1}Introduction}{1}}
\@writefile{lof}{\addvspace {10\p@ }}
\@writefile{lot}{\addvspace {10\p@ }}
\newlabel{chap:Introduction}{{1}{1}}
\@writefile{toc}{\contentsline {section}{\numberline {1.1}Introduction}{1}}
\citation{Akyildiz2002}
\citation{Akyildiz02}
\citation{Akyildiz02}
\citation{Akyildiz02}
\@writefile{toc}{\contentsline {section}{\numberline {1.2}Applications of Wireless Sensor Network}{2}}
\citation{Akyildiz2002}
\citation{Akyildiz02}
\citation{Akyildiz2002}
\citation{Akyildiz2002}
\@writefile{toc}{\contentsline {section}{\numberline {1.3}Research in Wireless Sensor Network}{3}}
\citation{KaiHan13}
\citation{Hong10}
\citation{Hong09}
\citation{Duan2011}
\citation{Bag11}
\citation{Feng09}
\citation{Ye02anenergy-efficient}
\citation{Hong10}
\citation{Hong10}
\@writefile{toc}{\contentsline {section}{\numberline {1.4}Energy Efficiency in Wireless Sensor Network}{5}}
\@writefile{toc}{\contentsline {section}{\numberline {1.5}Description of Problem}{5}}
\citation{Hong10}
\@writefile{toc}{\contentsline {section}{\numberline {1.6}Our Contribution}{6}}
\@writefile{toc}{\contentsline {section}{\numberline {1.7}Outline of the Thesis}{6}}
\@setckpt{chap1}{
\setcounter{page}{8}
\setcounter{equation}{0}
\setcounter{enumi}{0}
\setcounter{enumii}{0}
\setcounter{enumiii}{0}
\setcounter{enumiv}{0}
\setcounter{footnote}{0}
\setcounter{mpfootnote}{0}
\setcounter{part}{0}
\setcounter{chapter}{1}
\setcounter{section}{7}
\setcounter{subsection}{0}
\setcounter{subsubsection}{0}
\setcounter{paragraph}{0}
\setcounter{subparagraph}{0}
\setcounter{figure}{0}
\setcounter{table}{0}
\setcounter{subfigure}{0}
\setcounter{lofdepth}{1}
\setcounter{subtable}{0}
\setcounter{lotdepth}{1}
\setcounter{float@type}{8}
\setcounter{algorithm}{0}
\setcounter{ALG@line}{0}
\setcounter{ALG@rem}{0}
\setcounter{ALG@nested}{0}
\setcounter{ALG@Lnr}{2}
\setcounter{ALG@blocknr}{10}
\setcounter{ALG@storecount}{0}
\setcounter{ALG@tmpcounter}{0}
\setcounter{LT@tables}{0}
\setcounter{parentequation}{0}
}
