\relax 
\@writefile{toc}{\contentsline {chapter}{\numberline {3}Proposed Algorithm}{12}}
\@writefile{lof}{\addvspace {10\p@ }}
\@writefile{lot}{\addvspace {10\p@ }}
\newlabel{chap:Proposed Algorithm}{{3}{12}}
\@writefile{toc}{\contentsline {section}{\numberline {3.1}Introduction}{12}}
\newlabel{sec:Chap3_Introduction}{{3.1}{12}}
\@writefile{toc}{\contentsline {section}{\numberline {3.2}Problem Statement}{12}}
\newlabel{sec:Problem Statement}{{3.2}{12}}
\citation{Hong10}
\@writefile{toc}{\contentsline {section}{\numberline {3.3}Algorithm}{13}}
\newlabel{sec:Algorithm}{{3.3}{13}}
\@writefile{toc}{\contentsline {subsection}{\numberline {3.3.1}Centralized Set Cover based approximation with Minimum Transmission(CSCA\_MT)}{13}}
\citation{Hong10}
\@writefile{lof}{\contentsline {figure}{\numberline {3.1}{\ignorespaces Example of duty cycled WSN $G$ used to illustrate the algorithm.}}{14}}
\newlabel{f31}{{3.1}{14}}
\citation{Hong10}
\citation{Hong10}
\@writefile{lot}{\contentsline {table}{\numberline {3.1}{\ignorespaces Wakeup Schedule for the nodes of the Graph in Figure \nobreakspace  {}3.1\hbox {}}}{15}}
\newlabel{t31}{{3.1}{15}}
\@writefile{lof}{\contentsline {figure}{\numberline {3.2}{\ignorespaces Four cases of connecting a $Cov_i$(v)to the existing $T_{bcast}$ in CSCA\cite  {Hong10}}}{16}}
\newlabel{f32}{{3.2}{16}}
\citation{Hong10}
\citation{Hong10}
\@writefile{lot}{\contentsline {table}{\numberline {3.2}{\ignorespaces Notations used for CSCA\_MT}}{17}}
\newlabel{t32}{{3.2}{17}}
\@writefile{toc}{\contentsline {subsection}{\numberline {3.3.2}Brief Description of CSCA\_MT}{17}}
\@writefile{loa}{\contentsline {algorithm}{\numberline {1}{\ignorespaces Construction of Minimum Cover set $C_i$}}{18}}
\newlabel{alg1}{{1}{18}}
\@writefile{loa}{\contentsline {algorithm}{\numberline {2}{\ignorespaces CSCA\_MT Algorithm for Broadcast Tree Construction}}{20}}
\newlabel{alg2}{{2}{20}}
\@writefile{loa}{\contentsline {algorithm}{\numberline {3}{\ignorespaces CSCA\_MT Algorithm for Broadcast Tree Construction}}{21}}
\newlabel{alg2}{{3}{21}}
\@writefile{lot}{\contentsline {table}{\numberline {3.3}{\ignorespaces List of $C_i$, $1 \leq i \leq 4$}}{21}}
\newlabel{t32}{{3.3}{21}}
\@writefile{lof}{\contentsline {figure}{\numberline {3.3}{\ignorespaces Broadcast Tree $T$ with source node $s$}}{22}}
\newlabel{Fig:Chap3_Figure1}{{3.3}{22}}
\@writefile{lof}{\contentsline {figure}{\numberline {3.4}{\ignorespaces Broadcast tree $T$ at pass $1$.}}{22}}
\newlabel{Fig:Chap3_Figure1}{{3.4}{22}}
\@writefile{lof}{\contentsline {figure}{\numberline {3.5}{\ignorespaces Broadcast tree $T$ at pass $1$.}}{23}}
\newlabel{Fig:Chap3_Figure1}{{3.5}{23}}
\@writefile{lof}{\contentsline {figure}{\numberline {3.6}{\ignorespaces Broadcast Tree $T$ after node $15$ is skipped}}{24}}
\newlabel{Fig:Chap3_Figure1}{{3.6}{24}}
\@writefile{lof}{\contentsline {figure}{\numberline {3.7}{\ignorespaces Broadcast Tree $T$ after node $7$ is skipped}}{25}}
\newlabel{Fig:Chap3_Figure1}{{3.7}{25}}
\@writefile{lof}{\contentsline {figure}{\numberline {3.8}{\ignorespaces Broadcast Tree $T$ after node $4$ has connected.}}{25}}
\newlabel{Fig:Chap3_Figure1}{{3.8}{25}}
\@writefile{lof}{\contentsline {figure}{\numberline {3.9}{\ignorespaces Broadcast Tree $T$ after node $12$, $5$ are now connected.}}{26}}
\newlabel{Fig:Chap3_Figure1}{{3.9}{26}}
\@writefile{lof}{\contentsline {figure}{\numberline {3.10}{\ignorespaces Broadcast Tree $T$ after Node $13$ is connected.}}{27}}
\newlabel{Fig:Chap3_Figure1}{{3.10}{27}}
\@writefile{lof}{\contentsline {figure}{\numberline {3.11}{\ignorespaces Broadcast Tree $T$ after finishing step 1 of the algorithm .}}{28}}
\newlabel{Fig:Chap3_Figure11}{{3.11}{28}}
\@writefile{lof}{\contentsline {figure}{\numberline {3.12}{\ignorespaces Node $15$ and $16$ are connected to $T$ using step $2$}}{29}}
\newlabel{Fig:Chap3_Figure11}{{3.12}{29}}
\citation{Hong10}
\citation{Hong10}
\@writefile{lof}{\contentsline {figure}{\numberline {3.13}{\ignorespaces Broadcast Tree $T$ constructed by CSCA\_MT and CSCA}}{30}}
\newlabel{Fig:Chap3_Figure1}{{3.13}{30}}
\@writefile{toc}{\contentsline {subsection}{\numberline {3.3.3}Why Our Algorithm Improves the Performance}{31}}
\@writefile{lof}{\contentsline {figure}{\numberline {3.14}{\ignorespaces (a) CSCA Algorithm needs 3 transmission to cover node 8,9,14 (b) CSCA\_MT needs 2 transmission to cover node 7,8,14}}{31}}
\newlabel{Fig:Chap3_Figure1}{{3.14}{31}}
\@setckpt{chap3}{
\setcounter{page}{32}
\setcounter{equation}{0}
\setcounter{enumi}{4}
\setcounter{enumii}{0}
\setcounter{enumiii}{0}
\setcounter{enumiv}{0}
\setcounter{footnote}{0}
\setcounter{mpfootnote}{0}
\setcounter{part}{0}
\setcounter{chapter}{3}
\setcounter{section}{3}
\setcounter{subsection}{3}
\setcounter{subsubsection}{0}
\setcounter{paragraph}{0}
\setcounter{subparagraph}{0}
\setcounter{figure}{14}
\setcounter{table}{3}
\setcounter{subfigure}{0}
\setcounter{lofdepth}{1}
\setcounter{subtable}{0}
\setcounter{lotdepth}{1}
\setcounter{float@type}{8}
\setcounter{algorithm}{3}
\setcounter{ALG@line}{45}
\setcounter{ALG@rem}{45}
\setcounter{ALG@nested}{0}
\setcounter{ALG@Lnr}{2}
\setcounter{ALG@blocknr}{10}
\setcounter{ALG@storecount}{0}
\setcounter{ALG@tmpcounter}{0}
\setcounter{LT@tables}{0}
\setcounter{parentequation}{0}
}
