% Generated by IEEEtran.bst, version: 1.12 (2007/01/11)
\begin{thebibliography}{10}
\providecommand{\url}[1]{#1}
\csname url@samestyle\endcsname
\providecommand{\newblock}{\relax}
\providecommand{\bibinfo}[2]{#2}
\providecommand{\BIBentrySTDinterwordspacing}{\spaceskip=0pt\relax}
\providecommand{\BIBentryALTinterwordstretchfactor}{4}
\providecommand{\BIBentryALTinterwordspacing}{\spaceskip=\fontdimen2\font plus
\BIBentryALTinterwordstretchfactor\fontdimen3\font minus
  \fontdimen4\font\relax}
\providecommand{\BIBforeignlanguage}[2]{{%
\expandafter\ifx\csname l@#1\endcsname\relax
\typeout{** WARNING: IEEEtran.bst: No hyphenation pattern has been}%
\typeout{** loaded for the language `#1'. Using the pattern for}%
\typeout{** the default language instead.}%
\else
\language=\csname l@#1\endcsname
\fi
#2}}
\providecommand{\BIBdecl}{\relax}
\BIBdecl

\bibitem{Ye02anenergy-efficient}
W.~Ye, J.~Heidemann, and D.~Estrin, ``An energy-efficient mac protocol for
  wireless sensor networks,'' 2002.

\bibitem{Hong08}
J.~Hong, W.~Li, S.~Lu, J.~Cao, and D.~Chen, ``Sleeping schedule aware minimum
  transmission broadcast in wireless ad hoc networks,'' in \emph{Parallel and
  Distributed Systems, 2008. ICPADS '08. 14th IEEE International Conference
  on}, Dec 2008, pp. 399--406.

\bibitem{Hong10}
J.~Hong, J.~Cao, W.~Li, S.~Lu, and D.~Chen, ``Minimum-transmission broadcast in
  uncoordinated duty-cycled wireless ad hoc networks,'' \emph{IEEE Trans. Veh.
  Technol.}, vol.~59, pp. 307--318, Jan. 2010.

\bibitem{Akyildiz2002}
I.~F. Akyildiz, W.~Su, Y.~Sankarasubramaniam, and E.~Cayirci, ``Wireless sensor
  networks: A survey,'' \emph{Computer Networks}, vol.~38, no. 2002, pp.
  393--422, 2002.

\bibitem{Akyildiz02}
------, ``A survey on sensor networks,'' \emph{IEEE Communications Magazine},
  vol.~40, no.~8, pp. 102 -- 114, 2002.

\bibitem{KaiHan13}
K.~Han and J.~L. Yang~Liu, ``Duty-cycle-aware minimum-energy multicasting in
  wireless sensor networks,'' \emph{Networking, IEEE/ACM Transactions},
  vol.~21, pp. 910 -- 923, Jun. 2013.

\bibitem{Hong09}
J.~Hong, J.~Cao, W.~Li, S.~Lu, and D.~Chen, ``Sleeping schedule-aware minimum
  latency broadcast in wireless ad hoc networks,'' in \emph{Communications,
  2009. ICC '09. IEEE International Conference on}, June 2009, pp. 1--5.

\bibitem{Duan2011}
Y.~Duan, S.~Ji, and Z.~Cai, ``Generalized broadcast scheduling in duty-cycle
  multi-hop wireless networks,'' in \emph{Performance Computing and
  Communications Conference (IPCCC), 2011 IEEE 30th International}, Nov 2011,
  pp. 1--6.

\bibitem{Bag11}
\BIBentryALTinterwordspacing
M.~A. Baghaie and B.~Krishnamachari, ``Delay constrained minimum energy
  broadcast in cooperative wireless networks.'' in \emph{INFOCOM}.\hskip 1em
  plus 0.5em minus 0.4em\relax IEEE, 2011, pp. 864--872. [Online]. Available:
  \url{http://dblp.uni-trier.de/db/conf/infocom/infocom2011.html#BaghaieK11}
\BIBentrySTDinterwordspacing

\bibitem{Feng09}
F.~Wang and J.~Liu, ``Duty-cycle-aware broadcast in wireless sensor networks,''
  in \emph{INFOCOM 2009, IEEE}, April 2009, pp. 468--476.

\bibitem{DBLP:journals/corr/abs-1010-2818}
K.~Han, Y.~Liu, and M.~Xiao, ``Minimum-energy multicasting in asynchronous
  duty-cycled wireless ad hoc networks,'' \emph{CoRR}, vol. abs/1010.2818,
  2010.

\end{thebibliography}
