\relax 
\@input{TitlePage.aux}
\@input{TitlePage2.aux}
\@input{abstract.aux}
\@writefile{toc}{\fakechapter }
\@writefile{toc}{\contentsline {chapter}{Abstract}{i}}
\@writefile{toc}{\fakechapter }
\@writefile{toc}{\contentsline {chapter}{Table of Contents}{ii}}
\@writefile{toc}{\fakechapter }
\@writefile{toc}{\contentsline {chapter}{List of Figures}{iii}}
\citation{Hong10}
\@writefile{toc}{\realchapter }
\@writefile{toc}{\fakechapter }
\@writefile{toc}{\contentsline {chapter}{List of Tables}{v}}
\@writefile{toc}{\realchapter }
\@writefile{toc}{\fakechapter }
\@writefile{toc}{\contentsline {chapter}{List of Algorithms}{vi}}
\@writefile{toc}{\realchapter }
\@input{chap1.aux}
\@input{chap2.aux}
\@input{chap3.aux}
\@input{chap4.aux}
\@input{chap5.aux}
\bibstyle{IEEEtran}
\bibstyle{IEEEtran}
\bibdata{IEEEabrv,bibs}
\bibcite{Hong10}{1}
\bibcite{Akyildiz2002}{2}
\bibcite{Akyildiz02}{3}
\bibcite{KaiHan13}{4}
\bibcite{Hong09}{5}
\bibcite{Duan2011}{6}
\bibcite{Bag11}{7}
\@writefile{toc}{\fakechapter }
\@writefile{toc}{\contentsline {chapter}{Bibliography}{39}}
\bibcite{Feng09}{8}
\bibcite{Ye02anenergy-efficient}{9}
\bibcite{Hong08}{10}
\bibcite{DBLP:journals/corr/abs-1010-2818}{11}
\@writefile{toc}{\ttl@change@i {\@ne }{chapter}{6pc}{\bfseries }{\contentslabel [\appendixname \ \thecontentslabel ]{6pc}}{}{\hfill \contentspage }\relax }
\@writefile{toc}{\ttl@change@v {chapter}{}{}{}\relax }
\ttl@finishall
