\addvspace {10\p@ }
\addvspace {10\p@ }
\addvspace {10\p@ }
\contentsline {figure}{\numberline {3.1}{\ignorespaces Example of duty cycled WSN $G$ used to illustrate the algorithm.}}{14}
\contentsline {figure}{\numberline {3.2}{\ignorespaces Four cases of connecting a $Cov_i$(v)to the existing $T_{bcast}$ in CSCA\cite {Hong10}}}{16}
\contentsline {figure}{\numberline {3.3}{\ignorespaces Broadcast Tree $T$ with source node $s$}}{22}
\contentsline {figure}{\numberline {3.4}{\ignorespaces Broadcast tree $T$ at pass $1$.}}{22}
\contentsline {figure}{\numberline {3.5}{\ignorespaces Broadcast tree $T$ at pass $1$.}}{23}
\contentsline {figure}{\numberline {3.6}{\ignorespaces Broadcast Tree $T$ after node $15$ is skipped}}{24}
\contentsline {figure}{\numberline {3.7}{\ignorespaces Broadcast Tree $T$ after node $7$ is skipped}}{25}
\contentsline {figure}{\numberline {3.8}{\ignorespaces Broadcast Tree $T$ after node $4$ has connected.}}{25}
\contentsline {figure}{\numberline {3.9}{\ignorespaces Broadcast Tree $T$ after node $12$, $5$ are now connected.}}{26}
\contentsline {figure}{\numberline {3.10}{\ignorespaces Broadcast Tree $T$ after Node $13$ is connected.}}{27}
\contentsline {figure}{\numberline {3.11}{\ignorespaces Broadcast Tree $T$ after finishing step 1 of the algorithm .}}{28}
\contentsline {figure}{\numberline {3.12}{\ignorespaces Node $15$ and $16$ are connected to $T$ using step $2$}}{29}
\contentsline {figure}{\numberline {3.13}{\ignorespaces Broadcast Tree $T$ constructed by CSCA\_MT and CSCA}}{30}
\contentsline {figure}{\numberline {3.14}{\ignorespaces (a) CSCA Algorithm needs 3 transmission to cover node 8,9,14 (b) CSCA\_MT needs 2 transmission to cover node 7,8,14}}{31}
\addvspace {10\p@ }
\contentsline {figure}{\numberline {4.1}{\ignorespaces Total Number of Data Transmissions for CSCA and CSCA\_MT}}{34}
\contentsline {figure}{\numberline {4.2}{\ignorespaces Average Height of Broadcast Tree Generated by CSCA and CSCA\_MT}}{35}
\contentsline {figure}{\numberline {4.3}{\ignorespaces Average Delay Generated by CSCA and CSCA\_MT}}{37}
\addvspace {10\p@ }
\contentsfinish 
