\relax 
\@writefile{loa}{\contentsline {algorithm}{\numberline {1}{\ignorespaces EEDAT Algorithm for Data Aggregation Tree Construction}}{1}}
\newlabel{alg1}{{1}{1}}
\@writefile{loa}{\contentsline {algorithm}{\numberline {2}{\ignorespaces EEDAT Algorithm for Data Aggregation Tree Construction}}{2}}
\newlabel{alg2}{{2}{2}}
