This is pdfTeX, Version 3.1415926-1.40.11 (MiKTeX 2.9) (preloaded format=latex 2014.2.25)  3 MAR 2014 00:44
entering extended mode
**TitlePage.tex
("E:\MyWorks\ThesisProject\ThesisPaperWorks\Thesis Report\Report\TitlePage.tex"
LaTeX2e <2009/09/24>
Babel <v3.8l> and hyphenation patterns for english, afrikaans, ancientgreek, arabic, armenian, assamese, basque, bengali
, bokmal, bulgarian, catalan, coptic, croatian, czech, danish, dutch, esperanto, estonian, farsi, finnish, french, galic
ian, german, german-x-2009-06-19, greek, gujarati, hindi, hungarian, icelandic, indonesian, interlingua, irish, italian,
 kannada, kurmanji, lao, latin, latvian, lithuanian, malayalam, marathi, mongolian, mongolianlmc, monogreek, ngerman, ng
erman-x-2009-06-19, nynorsk, oriya, panjabi, pinyin, polish, portuguese, romanian, russian, sanskrit, serbian, slovak, s
lovenian, spanish, swedish, swissgerman, tamil, telugu, turkish, turkmen, ukenglish, ukrainian, uppersorbian, usenglishm
ax, welsh, loaded.

! LaTeX Error: Environment titlepage undefined.

See the LaTeX manual or LaTeX Companion for explanation.
Type  H <return>  for immediate help.
 ...                                              
                                                  
l.1 \begin{titlepage}
                     
Your command was ignored.
Type  I <command> <return>  to replace it with another command,
or  <return>  to continue without it.


! LaTeX Error: Missing \begin{document}.

See the LaTeX manual or LaTeX Companion for explanation.
Type  H <return>  for immediate help.
 ...                                              
                                                  
l.2 \begin{center}
                  
You're in trouble here.  Try typing  <return>  to proceed.
If that doesn't work, type  X <return>  to quit.


Overfull \hbox (20.0pt too wide) in paragraph at lines 2--2
[][] 
 []

! Undefined control sequence.
l.7 \noindent{\Huge
                    \textbf{Minimum Broadcast in Uncoordinated Duty Cycle WA...
The control sequence at the end of the top line
of your error message was never \def'ed. If you have
misspelled it (e.g., `\hobx'), type `I' and the correct
spelling (e.g., `I\hbox'). Otherwise just continue,
and I'll forget about whatever was undefined.


Overfull \hbox (48.9303pt too wide) in paragraph at lines 7--7
 \OT1/cmr/bx/n/10 Minimum 
 []


Overfull \hbox (34.47897pt too wide) in paragraph at lines 7--7
 \OT1/cmr/bx/n/10 Broad- 
 []


Overfull \hbox (19.70958pt too wide) in paragraph at lines 7--7
 \OT1/cmr/bx/n/10 cast 
 []


Overfull \hbox (9.58328pt too wide) in paragraph at lines 7--7
 \OT1/cmr/bx/n/10 in 
 []


Overfull \hbox (19.06934pt too wide) in paragraph at lines 7--7
 \OT1/cmr/bx/n/10 Un- 
 []


Overfull \hbox (14.69437pt too wide) in paragraph at lines 7--7
 \OT1/cmr/bx/n/10 co- 
 []


Overfull \hbox (14.31938pt too wide) in paragraph at lines 7--7
 \OT1/cmr/bx/n/10 or- 
 []


Overfull \hbox (13.4166pt too wide) in paragraph at lines 7--7
 \OT1/cmr/bx/n/10 di- 
 []


Overfull \hbox (28.11095pt too wide) in paragraph at lines 7--7
 \OT1/cmr/bx/n/10 nated 
 []


Overfull \hbox (25.43042pt too wide) in paragraph at lines 7--7
 \OT1/cmr/bx/n/10 Duty 
 []


Overfull \hbox (18.20824pt too wide) in paragraph at lines 7--7
 \OT1/cmr/bx/n/10 Cy- 
 []


Overfull \hbox (13.57632pt too wide) in paragraph at lines 7--7
 \OT1/cmr/bx/n/10 cle 
 []


Overfull \hbox (48.39694pt too wide) in paragraph at lines 7--7
 \OT1/cmr/bx/n/10 WANETs 
 []

! Undefined control sequence.
l.10 \noindent \large
                      \textbf{by} \\[-7pt]
The control sequence at the end of the top line
of your error message was never \def'ed. If you have
misspelled it (e.g., `\hobx'), type `I' and the correct
spelling (e.g., `I\hbox'). Otherwise just continue,
and I'll forget about whatever was undefined.


Overfull \hbox (12.29855pt too wide) in paragraph at lines 10--10
 []\OT1/cmr/bx/n/10 by 
 []


Overfull \hbox (39.19418pt too wide) in paragraph at lines 11--11
 []\OT1/cmr/bx/n/10 Umama 
 []


Overfull \hbox (21.00124pt too wide) in paragraph at lines 11--11
 \OT1/cmr/bx/n/10 Tas- 
 []


Overfull \hbox (19.16656pt too wide) in paragraph at lines 11--11
 \OT1/cmr/bx/n/10 nim 
 []


Overfull \hbox (28.79843pt too wide) in paragraph at lines 11--11
 []\OT1/cmr/bx/n/10 Exam 
 []


Overfull \hbox (20.76378pt too wide) in paragraph at lines 11--11
 \OT1/cmr/bx/n/10 Roll 
 []


Overfull \hbox (22.46515pt too wide) in paragraph at lines 11--11
 \OT1/cmr/bx/n/10 Car- 
 []


Overfull \hbox (17.24991pt too wide) in paragraph at lines 11--11
 \OT1/cmr/bx/n/10 zon 
 []


Overfull \hbox (24.81235pt too wide) in paragraph at lines 11--11
 \OT1/cmr/bx/n/10 Hall- 
 []


Overfull \hbox (11.49994pt too wide) in paragraph at lines 11--11
 \OT1/cmr/bx/n/10 22 
 []


Overfull \hbox (61.98021pt too wide) in paragraph at lines 11--11
 []\OT1/cmr/bx/n/10 Registration 
 []


Overfull \hbox (37.16647pt too wide) in paragraph at lines 11--11
 \OT1/cmr/bx/n/10 No:SH- 
 []


Overfull \hbox (22.99988pt too wide) in paragraph at lines 11--11
 \OT1/cmr/bx/n/10 2355 
 []


Overfull \hbox (66.09268pt too wide) in paragraph at lines 11--11
 []\OT1/cmr/bx/n/10 Session:2009- 
 []


Overfull \hbox (22.99988pt too wide) in paragraph at lines 11--11
 \OT1/cmr/bx/n/10 2010 
 []


Overfull \hbox (34.97896pt too wide) in paragraph at lines 13--13
 []\OT1/cmr/bx/n/10 Rifatul 
 []


Overfull \hbox (12.73047pt too wide) in paragraph at lines 13--13
 \OT1/cmr/bx/n/10 Is- 
 []


Overfull \hbox (18.36794pt too wide) in paragraph at lines 13--13
 \OT1/cmr/bx/n/10 lam 
 []


Overfull \hbox (28.79843pt too wide) in paragraph at lines 13--13
 []\OT1/cmr/bx/n/10 Exam 
 []


Overfull \hbox (20.76378pt too wide) in paragraph at lines 13--13
 \OT1/cmr/bx/n/10 Roll 
 []


Overfull \hbox (22.46515pt too wide) in paragraph at lines 13--13
 \OT1/cmr/bx/n/10 Car- 
 []


Overfull \hbox (17.24991pt too wide) in paragraph at lines 13--13
 \OT1/cmr/bx/n/10 zon 
 []


Overfull \hbox (24.81235pt too wide) in paragraph at lines 13--13
 \OT1/cmr/bx/n/10 Hall- 
 []


Overfull \hbox (11.49994pt too wide) in paragraph at lines 13--13
 \OT1/cmr/bx/n/10 22 
 []


Overfull \hbox (61.98021pt too wide) in paragraph at lines 13--13
 []\OT1/cmr/bx/n/10 Registration 
 []


Overfull \hbox (37.16647pt too wide) in paragraph at lines 13--13
 \OT1/cmr/bx/n/10 No:SH- 
 []


Overfull \hbox (22.99988pt too wide) in paragraph at lines 13--13
 \OT1/cmr/bx/n/10 2355 
 []


Overfull \hbox (66.09268pt too wide) in paragraph at lines 13--13
 []\OT1/cmr/bx/n/10 Session:2009- 
 []


Overfull \hbox (22.99988pt too wide) in paragraph at lines 13--13
 \OT1/cmr/bx/n/10 2010 
 []


Overfull \hbox (8.6944pt too wide) in paragraph at lines 16--17
 []\OT1/cmr/bx/n/10 A 
 []


Overfull \hbox (35.88177pt too wide) in paragraph at lines 16--17
 \OT1/cmr/bx/n/10 project 
 []


Overfull \hbox (21.1471pt too wide) in paragraph at lines 16--17
 \OT1/cmr/bx/n/10 sub- 
 []


Overfull \hbox (21.08322pt too wide) in paragraph at lines 16--17
 \OT1/cmr/bx/n/10 mit- 
 []


Overfull \hbox (16.13187pt too wide) in paragraph at lines 16--17
 \OT1/cmr/bx/n/10 ted 
 []


Overfull \hbox (9.58328pt too wide) in paragraph at lines 16--17
 \OT1/cmr/bx/n/10 in 
 []


Overfull \hbox (20.5485pt too wide) in paragraph at lines 16--17
 \OT1/cmr/bx/n/10 par- 
 []


Overfull \hbox (16.45128pt too wide) in paragraph at lines 16--17
 \OT1/cmr/bx/n/10 tial 
 []


Overfull \hbox (16.93047pt too wide) in paragraph at lines 16--17
 \OT1/cmr/bx/n/10 ful- 
 []


Overfull \hbox (16.61102pt too wide) in paragraph at lines 16--17
 \OT1/cmr/bx/n/10 fill- 
 []


Overfull \hbox (25.3957pt too wide) in paragraph at lines 16--17
 \OT1/cmr/bx/n/10 ment 
 []


Overfull \hbox (9.26384pt too wide) in paragraph at lines 16--17
 \OT1/cmr/bx/n/10 of 
 []


Overfull \hbox (16.13187pt too wide) in paragraph at lines 16--17
 \OT1/cmr/bx/n/10 the 
 []


Overfull \hbox (13.84023pt too wide) in paragraph at lines 16--17
 \OT1/cmr/bx/n/10 re- 
 []


Overfull \hbox (29.49292pt too wide) in paragraph at lines 16--17
 \OT1/cmr/bx/n/10 quire- 
 []


Overfull \hbox (25.3957pt too wide) in paragraph at lines 16--17
 \OT1/cmr/bx/n/10 ment 
 []


Overfull \hbox (13.99994pt too wide) in paragraph at lines 16--17
 \OT1/cmr/bx/n/10 for 
 []


Overfull \hbox (16.13187pt too wide) in paragraph at lines 16--17
 \OT1/cmr/bx/n/10 the 
 []


Overfull \hbox (15.49298pt too wide) in paragraph at lines 16--17
 \OT1/cmr/bx/n/10 de- 
 []


Overfull \hbox (21.0277pt too wide) in paragraph at lines 16--17
 \OT1/cmr/bx/n/10 gree 
 []


Overfull \hbox (9.26384pt too wide) in paragraph at lines 16--17
 \OT1/cmr/bx/n/10 of 
 []


Overfull \hbox (28.78455pt too wide) in paragraph at lines 16--17
 \OT1/cmr/bx/n/10 Bach- 
 []


Overfull \hbox (9.10413pt too wide) in paragraph at lines 16--17
 \OT1/cmr/bx/n/10 e- 
 []


Overfull \hbox (13.6805pt too wide) in paragraph at lines 16--17
 \OT1/cmr/bx/n/10 lor 
 []


Overfull \hbox (9.26384pt too wide) in paragraph at lines 16--17
 \OT1/cmr/bx/n/10 of 
 []


Overfull \hbox (18.52768pt too wide) in paragraph at lines 16--17
 \OT1/cmr/bx/n/10 Sci- 
 []


Overfull \hbox (22.04156pt too wide) in paragraph at lines 16--17
 \OT1/cmr/bx/n/10 ence 
 []


Overfull \hbox (9.58328pt too wide) in paragraph at lines 16--17
 \OT1/cmr/bx/n/10 in 
 []


Overfull \hbox (27.47208pt too wide) in paragraph at lines 16--17
 \OT1/cmr/bx/n/10 Com- 
 []


Overfull \hbox (27.25682pt too wide) in paragraph at lines 16--17
 \OT1/cmr/bx/n/10 puter 
 []


Overfull \hbox (18.52768pt too wide) in paragraph at lines 16--17
 \OT1/cmr/bx/n/10 Sci- 
 []


Overfull \hbox (22.04156pt too wide) in paragraph at lines 16--17
 \OT1/cmr/bx/n/10 ence 
 []


Overfull \hbox (18.36794pt too wide) in paragraph at lines 16--17
 \OT1/cmr/bx/n/10 and 
 []


Overfull \hbox (17.77768pt too wide) in paragraph at lines 16--17
 \OT1/cmr/bx/n/10 En- 
 []


Overfull \hbox (12.77771pt too wide) in paragraph at lines 16--17
 \OT1/cmr/bx/n/10 gi- 
 []


Overfull \hbox (25.4999pt too wide) in paragraph at lines 16--17
 \OT1/cmr/bx/n/10 neer- 
 []


Overfull \hbox (15.49298pt too wide) in paragraph at lines 16--17
 \OT1/cmr/bx/n/10 ing 
 []

! Undefined control sequence.
l.19 \includegraphics
                     [scale=0.1]{logo.eps}\\
The control sequence at the end of the top line
of your error message was never \def'ed. If you have
misspelled it (e.g., `\hobx'), type `I' and the correct
spelling (e.g., `I\hbox'). Otherwise just continue,
and I'll forget about whatever was undefined.

Missing character: There is no [ in font nullfont!
Missing character: There is no s in font nullfont!
Missing character: There is no c in font nullfont!
Missing character: There is no a in font nullfont!
Missing character: There is no l in font nullfont!
Missing character: There is no e in font nullfont!
Missing character: There is no = in font nullfont!
Missing character: There is no 0 in font nullfont!
Missing character: There is no . in font nullfont!
Missing character: There is no 1 in font nullfont!
Missing character: There is no ] in font nullfont!
Missing character: There is no l in font nullfont!
Missing character: There is no o in font nullfont!
Missing character: There is no g in font nullfont!
Missing character: There is no o in font nullfont!
Missing character: There is no . in font nullfont!
Missing character: There is no e in font nullfont!
Missing character: There is no p in font nullfont!
Missing character: There is no s in font nullfont!
! Undefined control sequence.
l.20 \noindent{\large
                      \textbf{Department of Computer Science and Engineering...
The control sequence at the end of the top line
of your error message was never \def'ed. If you have
misspelled it (e.g., `\hobx'), type `I' and the correct
spelling (e.g., `I\hbox'). Otherwise just continue,
and I'll forget about whatever was undefined.


Overfull \hbox (60.6733pt too wide) in paragraph at lines 20--20
 []\OT1/cmr/bx/n/10 Department 
 []


Overfull \hbox (9.26384pt too wide) in paragraph at lines 20--20
 \OT1/cmr/bx/n/10 of 
 []


Overfull \hbox (27.47208pt too wide) in paragraph at lines 20--20
 \OT1/cmr/bx/n/10 Com- 
 []


Overfull \hbox (27.25682pt too wide) in paragraph at lines 20--20
 \OT1/cmr/bx/n/10 puter 
 []


Overfull \hbox (18.52768pt too wide) in paragraph at lines 20--20
 \OT1/cmr/bx/n/10 Sci- 
 []


Overfull \hbox (22.04156pt too wide) in paragraph at lines 20--20
 \OT1/cmr/bx/n/10 ence 
 []


Overfull \hbox (18.36794pt too wide) in paragraph at lines 20--20
 \OT1/cmr/bx/n/10 and 
 []


Overfull \hbox (17.77768pt too wide) in paragraph at lines 20--20
 \OT1/cmr/bx/n/10 En- 
 []


Overfull \hbox (12.77771pt too wide) in paragraph at lines 20--20
 \OT1/cmr/bx/n/10 gi- 
 []


Overfull \hbox (25.4999pt too wide) in paragraph at lines 20--20
 \OT1/cmr/bx/n/10 neer- 
 []


Overfull \hbox (15.49298pt too wide) in paragraph at lines 20--20
 \OT1/cmr/bx/n/10 ing 
 []

! Undefined control sequence.
l.21 \noindent{\large
                      \textbf{University of Dhaka}}\\[-.3cm]
The control sequence at the end of the top line
of your error message was never \def'ed. If you have
misspelled it (e.g., `\hobx'), type `I' and the correct
spelling (e.g., `I\hbox'). Otherwise just continue,
and I'll forget about whatever was undefined.


Overfull \hbox (52.14pt too wide) in paragraph at lines 21--21
 []\OT1/cmr/bx/n/10 University 
 []


Overfull \hbox (9.26384pt too wide) in paragraph at lines 21--21
 \OT1/cmr/bx/n/10 of 
 []


Overfull \hbox (31.81923pt too wide) in paragraph at lines 21--21
 \OT1/cmr/bx/n/10 Dhaka 
 []

! Undefined control sequence.
l.22 \noindent{\large
                      \textbf{Dhaka, Bangladesh}}\\
The control sequence at the end of the top line
of your error message was never \def'ed. If you have
misspelled it (e.g., `\hobx'), type `I' and the correct
spelling (e.g., `I\hbox'). Otherwise just continue,
and I'll forget about whatever was undefined.


Overfull \hbox (35.01366pt too wide) in paragraph at lines 22--22
 []\OT1/cmr/bx/n/10 Dhaka, 
 []


Overfull \hbox (57.27881pt too wide) in paragraph at lines 22--22
 \OT1/cmr/bx/n/10 Bangladesh 
 []

! Undefined control sequence.
l.24 \noindent{\large
                      \textbf{March, 2014}}
The control sequence at the end of the top line
of your error message was never \def'ed. If you have
misspelled it (e.g., `\hobx'), type `I' and the correct
spelling (e.g., `I\hbox'). Otherwise just continue,
and I'll forget about whatever was undefined.


Overfull \hbox (35.61786pt too wide) in paragraph at lines 24--25
 []\OT1/cmr/bx/n/10 March, 
 []


Overfull \hbox (22.99988pt too wide) in paragraph at lines 24--25
 \OT1/cmr/bx/n/10 2014 
 []


! LaTeX Error: \begin{document} ended by \end{titlepage}.

See the LaTeX manual or LaTeX Companion for explanation.
Type  H <return>  for immediate help.
 ...                                              
                                                  
l.60 \end{titlepage}
                    
Your command was ignored.
Type  I <command> <return>  to replace it with another command,
or  <return>  to continue without it.

)
! Emergency stop.
<*> TitlePage.tex
                 
*** (job aborted, no legal \end found)

 
Here is how much of TeX's memory you used:
 12 strings out of 494054
 332 string characters out of 3146211
 51862 words of memory out of 3000000
 3399 multiletter control sequences out of 15000+200000
 3948 words of font info for 15 fonts, out of 3000000 for 9000
 715 hyphenation exceptions out of 8191
 13i,1n,10p,137b,116s stack positions out of 5000i,500n,10000p,200000b,50000s
No pages of output.
